…
```r
library(palmerpenguins)

# setting my personal theme
theme_set(theme_h())

# Loading data
data("penguins")
penguins
```

```
## # A tibble: 344 × 8
##    species island    bill_length_mm bill_depth_mm flipper_length_mm body_mass_g
##    <fct>   <fct>              <dbl>         <dbl>             <int>       <int>
##  1 Adelie  Torgersen           39.1          18.7               181        3750
##  2 Adelie  Torgersen           39.5          17.4               186        3800
##  3 Adelie  Torgersen           40.3          18                 195        3250
##  4 Adelie  Torgersen           NA            NA                  NA          NA
##  5 Adelie  Torgersen           36.7          19.3               193        3450
##  6 Adelie  Torgersen           39.3          20.6               190        3650
##  7 Adelie  Torgersen           38.9          17.8               181        3625
##  8 Adelie  Torgersen           39.2          19.6               195        4675
##  9 Adelie  Torgersen           34.1          18.1               193        3475
## 10 Adelie  Torgersen           42            20.2               190        4250
## # … with 334 more rows, and 2 more variables: sex <fct>, year <int>
```
…
The proportion is set by default to 75% in training and 25% in testing. The functions `training()` and `testing()` will give me the resulting datasets.


```r
penguins_train = training(penguins_split)
penguins_test = testing(penguins_split)

penguins_train
```

```
## # A tibble: 249 × 6
##    species bill_length_mm bill_depth_mm flipper_length_mm body_mass_g sex   
##    <fct>            <dbl>         <dbl>             <int>       <int> <fct> 
##  1 Adelie            39.5          17.4               186        3800 female
##  2 Adelie            40.3          18                 195        3250 female
##  3 Adelie            36.7          19.3               193        3450 female
##  4 Adelie            36.6          17.8               185        3700 female
##  5 Adelie            38.7          19                 195        3450 female
##  6 Adelie            35.9          19.2               189        3800 female
##  7 Adelie            37.9          18.6               172        3150 female
##  8 Adelie            39.5          16.7               178        3250 female
##  9 Adelie            39.5          17.8               188        3300 female
## 10 Adelie            42.2          18.5               180        3550 female
## # … with 239 more rows
```

```r
penguins_test
```

```
## # A tibble: 84 × 6
##    species bill_length_mm bill_depth_mm flipper_length_mm body_mass_g sex   
##    <fct>            <dbl>         <dbl>             <int>       <int> <fct> 
##  1 Adelie            38.9          17.8               181        3625 female
##  2 Adelie            39.2          19.6               195        4675 male  
##  3 Adelie            41.1          17.6               182        3200 female
##  4 Adelie            34.4          18.4               184        3325 female
##  5 Adelie            46            21.5               194        4200 male  
##  6 Adelie            37.8          18.3               174        3400 female
##  7 Adelie            37.7          18.7               180        3600 male  
##  8 Adelie            35.3          18.9               187        3800 female
##  9 Adelie            40.6          18.6               183        3550 male  
## 10 Adelie            40.5          17.9               187        3200 female
## # … with 74 more rows
```
…
Note that our training sample has only 249 rows. This is not a huge dataset and we are not sure if the model we will make from this will be generalisable.

One simple way to solve this is using Bootstrapped samples. Each bootstrap sample is of original sample size but is also different from each other. They are collected sample of observations with replacement. Again, see the help file to understand the function.


```r
?bootstraps

penguins_boot = bootstraps(penguins_train)
penguins_boot
```

```
## # Bootstrap sampling 
## # A tibble: 25 × 2
##    splits           id         
##    <list>           <chr>      
##  1 <split [249/85]> Bootstrap01
##  2 <split [249/93]> Bootstrap02
##  3 <split [249/85]> Bootstrap03
##  4 <split [249/93]> Bootstrap04
##  5 <split [249/84]> Bootstrap05
##  6 <split [249/87]> Bootstrap06
##  7 <split [249/88]> Bootstrap07
##  8 <split [249/92]> Bootstrap08
##  9 <split [249/93]> Bootstrap09
## 10 <split [249/86]> Bootstrap10
## # … with 15 more rows
```
…
```r
glm_rs
```

```
## Warning: This tuning result has notes. Example notes on model fitting include:
## preprocessor 1/1, model 1/1: glm.fit: fitted probabilities numerically 0 or 1 occurred
```

```
## # Resampling results
## # Bootstrap sampling 
## # A tibble: 25 × 5
##    splits           id          .metrics         .notes           .predictions  
##    <list>           <chr>       <list>           <list>           <list>        
##  1 <split [249/85]> Bootstrap01 <tibble [2 × 4]> <tibble [0 × 1]> <tibble [85 ×…
##  2 <split [249/93]> Bootstrap02 <tibble [2 × 4]> <tibble [0 × 1]> <tibble [93 ×…
##  3 <split [249/85]> Bootstrap03 <tibble [2 × 4]> <tibble [0 × 1]> <tibble [85 ×…
##  4 <split [249/93]> Bootstrap04 <tibble [2 × 4]> <tibble [0 × 1]> <tibble [93 ×…
##  5 <split [249/84]> Bootstrap05 <tibble [2 × 4]> <tibble [0 × 1]> <tibble [84 ×…
##  6 <split [249/87]> Bootstrap06 <tibble [2 × 4]> <tibble [0 × 1]> <tibble [87 ×…
##  7 <split [249/88]> Bootstrap07 <tibble [2 × 4]> <tibble [0 × 1]> <tibble [88 ×…
##  8 <split [249/92]> Bootstrap08 <tibble [2 × 4]> <tibble [0 × 1]> <tibble [92 ×…
##  9 <split [249/93]> Bootstrap09 <tibble [2 × 4]> <tibble [0 × 1]> <tibble [93 ×…
## 10 <split [249/86]> Bootstrap10 <tibble [2 × 4]> <tibble [0 × 1]> <tibble [86 ×…
## # … with 15 more rows
```
…
```r
rf_rs = penguin_wf %>% 
   add_model(rf_spec) %>%
   fit_resamples(resamples = penguins_boot, 
                 control = control_resamples(save_pred = TRUE, verbose = F))

rf_rs
```

```
## # Resampling results
## # Bootstrap sampling 
## # A tibble: 25 × 5
##    splits           id          .metrics         .notes           .predictions  
##    <list>           <chr>       <list>           <list>           <list>        
##  1 <split [249/85]> Bootstrap01 <tibble [2 × 4]> <tibble [0 × 1]> <tibble [85 ×…
##  2 <split [249/93]> Bootstrap02 <tibble [2 × 4]> <tibble [0 × 1]> <tibble [93 ×…
##  3 <split [249/85]> Bootstrap03 <tibble [2 × 4]> <tibble [0 × 1]> <tibble [85 ×…
##  4 <split [249/93]> Bootstrap04 <tibble [2 × 4]> <tibble [0 × 1]> <tibble [93 ×…
##  5 <split [249/84]> Bootstrap05 <tibble [2 × 4]> <tibble [0 × 1]> <tibble [84 ×…
##  6 <split [249/87]> Bootstrap06 <tibble [2 × 4]> <tibble [0 × 1]> <tibble [87 ×…
##  7 <split [249/88]> Bootstrap07 <tibble [2 × 4]> <tibble [0 × 1]> <tibble [88 ×…
##  8 <split [249/92]> Bootstrap08 <tibble [2 × 4]> <tibble [0 × 1]> <tibble [92 ×…
##  9 <split [249/93]> Bootstrap09 <tibble [2 × 4]> <tibble [0 × 1]> <tibble [93 ×…
## 10 <split [249/86]> Bootstrap10 <tibble [2 × 4]> <tibble [0 × 1]> <tibble [86 ×…
## # … with 15 more rows
```
…
Logistic regression performs slightly better in both metrics: accuracy and AUC. Even if they were nearly equal and I had to choose, I would choose linear model. It is faster to implement, scalable and most importantly explainable.

## Predictions

The predictions can be found using `collect_predictions()` function.


```r
glm_rs %>% 
  collect_predictions()
```

```
## # A tibble: 2,250 × 7
##    id          .pred_female .pred_male  .row .pred_class sex    .config         
##    <chr>              <dbl>      <dbl> <int> <fct>       <fct>  <chr>           
##  1 Bootstrap01       0.580  0.420          6 female      female Preprocessor1_M…
##  2 Bootstrap01       0.987  0.0125         7 female      female Preprocessor1_M…
##  3 Bootstrap01       0.978  0.0219         9 female      female Preprocessor1_M…
##  4 Bootstrap01       0.0277 0.972         10 male        female Preprocessor1_M…
##  5 Bootstrap01       0.842  0.158         11 female      female Preprocessor1_M…
##  6 Bootstrap01       1.00   0.000350      12 female      female Preprocessor1_M…
##  7 Bootstrap01       0.999  0.000525      13 female      female Preprocessor1_M…
##  8 Bootstrap01       1.00   0.00000806    14 female      female Preprocessor1_M…
##  9 Bootstrap01       0.918  0.0824        16 female      female Preprocessor1_M…
## 10 Bootstrap01       0.966  0.0341        19 female      female Preprocessor1_M…
## # … with 2,240 more rows
```
…
<img src="{{< blogdown/postref >}}index_files/figure-html/unnamed-chunk-24-1.png" width="672" />

How does `autoplot()` work?


```r
glm_rs %>% 
   collect_predictions() %>% 
   group_by(id) %>% # -- to get 25 ROC curves, for each bootstrapped sample
   roc_curve(sex, .pred_female)
```

```
## # A tibble: 2,296 × 4
## # Groups:   id [25]
##    id           .threshold specificity sensitivity
##    <chr>             <dbl>       <dbl>       <dbl>
##  1 Bootstrap01 -Inf              0               1
##  2 Bootstrap01    6.67e-10       0               1
##  3 Bootstrap01    7.64e- 8       0.025           1
##  4 Bootstrap01    8.21e- 8       0.05            1
##  5 Bootstrap01    1.28e- 7       0.075           1
##  6 Bootstrap01    1.58e- 7       0.1             1
##  7 Bootstrap01    3.33e- 6       0.125           1
##  8 Bootstrap01    1.42e- 5       0.15            1
##  9 Bootstrap01    1.49e- 5       0.175           1
## 10 Bootstrap01    2.19e- 5       0.2             1
## # … with 2,286 more rows
```
…
```
## # A tibble: 2 × 4
##   .metric  .estimator .estimate .config             
##   <chr>    <chr>          <dbl> <chr>               
## 1 accuracy binary         0.905 Preprocessor1_Model1
## 2 roc_auc  binary         0.966 Preprocessor1_Model1
```

```r
penguins_final %>% 
  collect_predictions()
```

```
## # A tibble: 84 × 7
##    id               .pred_female .pred_male  .row .pred_class sex    .config    
##    <chr>                   <dbl>      <dbl> <int> <fct>       <fct>  <chr>      
##  1 train/test split  0.887          0.113       6 female      female Preprocess…
##  2 train/test split  0.0000979      1.00        7 male        male   Preprocess…
##  3 train/test split  0.976          0.0238      8 female      female Preprocess…
##  4 train/test split  0.996          0.00431    14 female      female Preprocess…
##  5 train/test split  0.000000623    1.00       15 male        male   Preprocess…
##  6 train/test split  0.973          0.0273     16 female      female Preprocess…
##  7 train/test split  0.772          0.228      17 female      male   Preprocess…
##  8 train/test split  0.662          0.338      21 female      female Preprocess…
##  9 train/test split  0.434          0.566      22 male        male   Preprocess…
## 10 train/test split  0.961          0.0388     23 female      female Preprocess…
## # … with 74 more rows
```
…
