…
``` r
# load IndiaPIN
library(IndiaPIN)
data(IndiaPIN)
```

## Example

### Data and Variables

``` r
IndiaPIN
```

    ## # A tibble: 18,169 × 9
    ## # Groups:   PIN [18,169]
    ##    Circle        Region Division Office    PIN District State Latitude Longitude
    ##    <chr>         <chr>  <chr>    <chr>   <int> <chr>    <chr>    <dbl>     <dbl>
    ##  1 Andhra Prade… Kurno… Hindupu… Pedda… 515631 ANANTAP… ANDH…     14.6      77.9
    ##  2 Andhra Prade… Kurno… Hindupu… Obula… 515581 ANANTAP… ANDH…     14.2      78.3
    ##  3 Andhra Prade… Kurno… Hindupu… Gurra… 515571 ANANTAP… ANDH…     13.9      78.2
    ##  4 Andhra Prade… Kurno… Hindupu… Halli… 515311 ANANTAP… ANDH…     13.8      77.0
    ##  5 Andhra Prade… Kurno… Hindupu… Tamma… 515281 ANANTAP… ANDH…     14.1      77.0
    ##  6 Andhra Prade… Kurno… Hindupu… Bussa… 515241 ANANTAP… ANDH…     14.0      77.7
    ##  7 Andhra Prade… Vijay… Tadepal… Kavul… 534176 WEST GO… ANDH…     16.6      80.6
    ##  8 Bihar Circle  East … Bhagalp… Kathr… 813105 BANKA    BIHAR     84.5      24.2
    ##  9 Bihar Circle  East … Bhagalp… Kasri… 813203 BHAGALP… BIHAR     87.3      25.3
    ## 10 Bihar Circle  East … Bhagalp… Akida… 853202 BHAGALP… BIHAR     25.4      84.3
    ## # … with 18,159 more rows
…
