…
``` r
# adding column names and using janitor to clean names
names(df) = c("Account ID", "Screen name", "Legacy verification status", "Follower count",
              "Date Blue Sub", "Time Blue Sub", "Sub Status")
df = janitor::clean_names(df)

df
```

    ## # A tibble: 576,873 × 7
    ##    account_id screen_name  legacy_verificat…¹ follo…² date_blu…³ time_…⁴ sub_s…⁵
    ##         <dbl> <chr>        <chr>                <dbl> <date>       <dbl> <chr>  
    ##  1         12 jack         V                  6548240 2022-11-10  1.67e9 U      
    ##  2         18 Adam         <NA>                     4 2022-11-10  1.67e9 S      
    ##  3         22 rabble       <NA>                 18606 2022-11-10  1.67e9 U      
    ##  4         41 drx          <NA>                   130 2023-03-03  1.68e9 B      
    ##  5         58 Darkside     <NA>                  6065 2022-11-18  1.67e9 B      
    ##  6         59 Tim535353    V                     9369 2022-11-11  1.67e9 B      
    ##  7         76 marciadorsey V                    19598 2022-11-11  1.67e9 B      
    ##  8        294 ario         <NA>                  5783 2022-11-10  1.67e9 B      
    ##  9        295 joshk        V                   149304 2023-02-23  1.68e9 B      
    ## 10        324 chrisfralic  V                    41137 2022-12-16  1.67e9 B      
    ## # … with 576,863 more rows, and abbreviated variable names
    ## #   ¹​legacy_verification_status, ²​follower_count, ³​date_blue_sub,
    ## #   ⁴​time_blue_sub, ⁵​sub_status
…
