…
    ## Rows: 418 Columns: 11
    ## ── Column specification ────────────────────────────────────────────────────────
    ## Delimiter: ","
    ## chr (5): Name, Sex, Ticket, Cabin, Embarked
    ## dbl (6): PassengerId, Pclass, Age, SibSp, Parch, Fare
    ## 
    ## ℹ Use `spec()` to retrieve the full column specification for this data.
    ## ℹ Specify the column types or set `show_col_types = FALSE` to quiet this message.

``` r
training
```

    ## # A tibble: 891 × 12
    ##    PassengerId Survived Pclass Name   Sex     Age SibSp Parch Ticket  Fare Cabin
    ##          <dbl>    <dbl>  <dbl> <chr>  <chr> <dbl> <dbl> <dbl> <chr>  <dbl> <chr>
    ##  1           1        0      3 Braun… male     22     1     0 A/5 2…  7.25 <NA> 
    ##  2           2        1      1 Cumin… fema…    38     1     0 PC 17… 71.3  C85  
    ##  3           3        1      3 Heikk… fema…    26     0     0 STON/…  7.92 <NA> 
    ##  4           4        1      1 Futre… fema…    35     1     0 113803 53.1  C123 
    ##  5           5        0      3 Allen… male     35     0     0 373450  8.05 <NA> 
    ##  6           6        0      3 Moran… male     NA     0     0 330877  8.46 <NA> 
    ##  7           7        0      1 McCar… male     54     0     0 17463  51.9  E46  
    ##  8           8        0      3 Palss… male      2     3     1 349909 21.1  <NA> 
    ##  9           9        1      3 Johns… fema…    27     0     2 347742 11.1  <NA> 
    ## 10          10        1      2 Nasse… fema…    14     1     0 237736 30.1  <NA> 
    ## # … with 881 more rows, and 1 more variable: Embarked <chr>

``` r
testing
```

    ## # A tibble: 418 × 11
    ##    PassengerId Pclass Name   Sex     Age SibSp Parch Ticket  Fare Cabin Embarked
    ##          <dbl>  <dbl> <chr>  <chr> <dbl> <dbl> <dbl> <chr>  <dbl> <chr> <chr>   
    ##  1         892      3 Kelly… male   34.5     0     0 330911  7.83 <NA>  Q       
    ##  2         893      3 Wilke… fema…  47       1     0 363272  7    <NA>  S       
    ##  3         894      2 Myles… male   62       0     0 240276  9.69 <NA>  Q       
    ##  4         895      3 Wirz,… male   27       0     0 315154  8.66 <NA>  S       
    ##  5         896      3 Hirvo… fema…  22       1     1 31012… 12.3  <NA>  S       
    ##  6         897      3 Svens… male   14       0     0 7538    9.22 <NA>  S       
    ##  7         898      3 Conno… fema…  30       0     0 330972  7.63 <NA>  Q       
    ##  8         899      2 Caldw… male   26       1     1 248738 29    <NA>  S       
    ##  9         900      3 Abrah… fema…  18       0     0 2657    7.23 <NA>  C       
    ## 10         901      3 Davie… male   21       2     0 A/4 4… 24.2  <NA>  S       
    ## # … with 408 more rows
…
    ## [1] 0

# Logistic Regression and xgboost Tree

The first method I want to try is generalised least squares, or logistic regression. Second I want to `xgboost` tree.

Note that our sample size is only 667. For most methods, this is very small. Thus, I will use bootstrapped samples.

``` r
tit_boot = bootstraps(tit_train, strata = Survived)
tit_boot
```

    ## # Bootstrap sampling using stratification 
    ## # A tibble: 25 × 2
    ##    splits            id         
    ##    <list>            <chr>      
    ##  1 <split [667/246]> Bootstrap01
    ##  2 <split [667/244]> Bootstrap02
    ##  3 <split [667/249]> Bootstrap03
    ##  4 <split [667/242]> Bootstrap04
    ##  5 <split [667/231]> Bootstrap05
    ##  6 <split [667/239]> Bootstrap06
    ##  7 <split [667/257]> Bootstrap07
    ##  8 <split [667/230]> Bootstrap08
    ##  9 <split [667/238]> Bootstrap09
    ## 10 <split [667/249]> Bootstrap10
    ## # … with 15 more rows
…
0.843 as AUC score is not bad at all.

With bootstrapped samples:

``` r
glm_rs = glm_wf %>% 
   fit_resamples(resamples = tit_boot, 
                 control = control_resamples(save_pred = TRUE, verbose = F))
glm_rs
```

    ## # Resampling results
    ## # Bootstrap sampling using stratification 
    ## # A tibble: 25 × 5
    ##    splits            id          .metrics         .notes           .predictions
    ##    <list>            <chr>       <list>           <list>           <list>      
    ##  1 <split [667/246]> Bootstrap01 <tibble [2 × 4]> <tibble [0 × 1]> <tibble>    
    ##  2 <split [667/244]> Bootstrap02 <tibble [2 × 4]> <tibble [0 × 1]> <tibble>    
    ##  3 <split [667/249]> Bootstrap03 <tibble [2 × 4]> <tibble [0 × 1]> <tibble>    
    ##  4 <split [667/242]> Bootstrap04 <tibble [2 × 4]> <tibble [0 × 1]> <tibble>    
    ##  5 <split [667/231]> Bootstrap05 <tibble [2 × 4]> <tibble [0 × 1]> <tibble>    
    ##  6 <split [667/239]> Bootstrap06 <tibble [2 × 4]> <tibble [0 × 1]> <tibble>    
    ##  7 <split [667/257]> Bootstrap07 <tibble [2 × 4]> <tibble [0 × 1]> <tibble>    
    ##  8 <split [667/230]> Bootstrap08 <tibble [2 × 4]> <tibble [0 × 1]> <tibble>    
    ##  9 <split [667/238]> Bootstrap09 <tibble [2 × 4]> <tibble [0 × 1]> <tibble>    
    ## 10 <split [667/249]> Bootstrap10 <tibble [2 × 4]> <tibble [0 × 1]> <tibble>    
    ## # … with 15 more rows
…
