…
``` r
# load IndiaPIN
library(IndiaPIN)
data(IndiaPIN)
```

## Example

### Data and Variables

``` r
IndiaPIN
```

    ## # A tibble: 18,169 × 9
    ## # Groups:   PIN [18,169]
    ##    Circle   Region   Division   Office     PIN District State Latitude Longitude
    ##    <chr>    <chr>    <chr>      <chr>    <int> <chr>    <chr>    <dbl>     <dbl>
    ##  1 Andhra … Kurnool… Hindupur … Peddak… 515631 ANANTAP… ANDH…     14.6      77.9
    ##  2 Andhra … Kurnool… Hindupur … Obular… 515581 ANANTAP… ANDH…     14.2      78.3
    ##  3 Andhra … Kurnool… Hindupur … Gurram… 515571 ANANTAP… ANDH…     13.9      78.2
    ##  4 Andhra … Kurnool… Hindupur … Hallik… 515311 ANANTAP… ANDH…     13.8      77.0
    ##  5 Andhra … Kurnool… Hindupur … Tammad… 515281 ANANTAP… ANDH…     14.1      77.0
    ##  6 Andhra … Kurnool… Hindupur … Bussai… 515241 ANANTAP… ANDH…     14.0      77.7
    ##  7 Andhra … Vijayaw… Tadepalli… Kavulu… 534176 WEST GO… ANDH…     16.6      80.6
    ##  8 Bihar C… East Re… Bhagalpur… Kathra… 813105 BANKA    BIHAR     84.5      24.2
    ##  9 Bihar C… East Re… Bhagalpur… Kasri … 813203 BHAGALP… BIHAR     87.3      25.3
    ## 10 Bihar C… East Re… Bhagalpur… Akidat… 853202 BHAGALP… BIHAR     25.4      84.3
    ## # … with 18,159 more rows
…
