…
```
## ── Conflicts ────────────────────────────────────────── tidyverse_conflicts() ──
## x dplyr::filter() masks stats::filter()
## x dplyr::lag()    masks stats::lag()
```

```r
theme_set(theme_h())

golf = read.csv("https://www.harsh17.in/using-linear-regression-to-find-optimal-value/data/golf.csv") %>% as_tibble()
golf
```

```
## # A tibble: 52 × 4
##    State          Location.quotient Establishments Employment
##    <chr>                      <dbl> <chr>          <chr>     
##  1 U.S. Total                  1    11,088         306,782   
##  2 Florida                     2.66 884            48,670    
##  3 Hawaii                      2.5  57             3,491     
##  4 South Carolina              2.1  256            9,094     
##  5 Arizona                     1.58 168            9,417     
##  6 Nevada                      1.39 83             3,959     
##  7 North Carolina              1.35 402            12,496    
##  8 Alabama                     1.14 150            4,670     
##  9 Pennsylvania                1.13 551            13,975    
## 10 Georgia                     1.1  279            10,279    
## # … with 42 more rows
```

Population of each US state is available on this [website](https://worldpopulationreview.com/states). I downloaded the `.CSV` file available from there ([click here](https://www.harsh17.in/using-linear-regression-to-find-optimal-value/data/state_population.csv) to download).


```r
population = read.csv("https://www.harsh17.in/using-linear-regression-to-find-optimal-value/data/state_population.csv") %>% as_tibble()
population
```

```
## # A tibble: 52 × 9
##     rank State       Pop  Growth Pop2021 Pop2010 growthSince2010 Percent density
##    <int> <chr>     <int>   <dbl>   <int>   <int>           <dbl>   <dbl>   <dbl>
##  1     1 Califor… 3.97e7  0.0013  3.96e7  3.73e7          0.0628  0.118     255.
##  2     2 Texas    3.01e7  0.0124  2.97e7  2.52e7          0.192   0.0896    115.
##  3     3 Florida  2.22e7  0.0106  2.19e7  1.88e7          0.177   0.066     414.
##  4     4 New York 1.92e7 -0.004   1.93e7  1.94e7         -0.0091  0.0572    408.
##  5     5 Pennsyl… 1.28e7  0.0001  1.28e7  1.27e7          0.0074  0.0381    286.
##  6     6 Illinois 1.25e7 -0.0041  1.26e7  1.28e7         -0.0251  0.0372    225.
##  7     7 Ohio     1.17e7  0.0011  1.17e7  1.15e7          0.0163  0.0349    287.
##  8     8 Georgia  1.09e7  0.0098  1.08e7  9.71e6          0.126   0.0325    190.
##  9     9 North C… 1.08e7  0.0099  1.07e7  9.57e6          0.129   0.0322    222.
## 10    10 Michigan 1.00e7  0.0003  9.99e6  9.88e6          0.0119  0.0297    177.
## # … with 42 more rows
```
…
