…
I can download more than one books at a time and many other fancy things. Check `gutenbergr`'s [vignette](https://cran.r-project.org/web/packages/gutenbergr/vignettes/intro.html) for more information.

### Exploring the Book

Let's see what we have in `book`.


```r
book
```

```
## # A tibble: 8,328 × 2
##    gutenberg_id text         
##           <int> <chr>        
##  1          105 "Persuasion" 
##  2          105 ""           
##  3          105 ""           
##  4          105 "by"         
##  5          105 ""           
##  6          105 "Jane Austen"
##  7          105 ""           
##  8          105 "(1818)"     
##  9          105 ""           
## 10          105 ""           
## # … with 8,318 more rows
```

The `book` object has two variables: `gutenberg_id` and `text`. Unless you are downloading multiple books, `text` is the only useful variable.

Also note that there are 8,328 rows in the dataset. However, this text is not in `tidytext` [format](https://www.tidytextmining.com/tidytext.html), where each row identifies a token and each column is a variable. (An easy way to remember the format is to repeat out loud "**One Token Per Document Per Row**" as often as you can.)

To convert it into `tidytext` format, I will use `unnest_tokens()` function from `tidytext` package.


```r
book %>% 
  unnest_tokens(word, text)
```

```
## # A tibble: 83,658 × 2
##    gutenberg_id word      
##           <int> <chr>     
##  1          105 persuasion
##  2          105 by        
##  3          105 jane      
##  4          105 austen    
##  5          105 1818      
##  6          105 chapter   
##  7          105 1         
##  8          105 sir       
##  9          105 walter    
## 10          105 elliot    
## # … with 83,648 more rows
```
…
We can look for several manipulations for insights about the words. Such as, how many four letter words did she use? Less than four letter words? Longer than ten letter words?


```r
book = book %>% 
  unnest_tokens(word, text)

# Four Letter Words
book %>% 
  filter(str_length(word) == 4)
```

```
## # A tibble: 15,505 × 2
##    gutenberg_id word 
##           <int> <chr>
##  1          105 jane 
##  2          105 1818 
##  3          105 hall 
##  4          105 took 
##  5          105 book 
##  6          105 idle 
##  7          105 hour 
##  8          105 were 
##  9          105 into 
## 10          105 from 
## # … with 15,495 more rows
```

```r
# Less than four letter words
book %>% 
  filter(str_length(word) < 4)
```

```
## # A tibble: 37,908 × 2
##    gutenberg_id word 
##           <int> <chr>
##  1          105 by   
##  2          105 1    
##  3          105 sir  
##  4          105 of   
##  5          105 in   
##  6          105 was  
##  7          105 a    
##  8          105 man  
##  9          105 who  
## 10          105 for  
## # … with 37,898 more rows
```

```r
# More than ten letters
book %>% 
  filter(str_length(word) > 10)
```

```
## # A tibble: 1,636 × 2
##    gutenberg_id word         
##           <int> <chr>        
##  1          105 somersetshire
##  2          105 consolation  
##  3          105 contemplating
##  4          105 information  
##  5          105 respectable  
##  6          105 representing 
##  7          105 parliaments  
##  8          105 handwriting  
##  9          105 presumptive  
## 10          105 infatuation  
## # … with 1,626 more rows
```

We see that there are 15,505 words that have exactly four letters. 37,908 have less than four letters (that includes numbers such as 1). There are 1,636 words that have more than ten letters in them.

### Words that Start or End with ...

We can also find words that start or end with a particular string. For example, I wonder how often does Jane Austen use V4 form of the verb --- ending in "ing"? We can use `str_ends()` from `stringr` package.


```r
book %>% 
  filter(str_ends(word, "ing"))
```

```
## # A tibble: 2,638 × 2
##    gutenberg_id word         
##           <int> <chr>        
##  1          105 contemplating
##  2          105 arising      
##  3          105 adding       
##  4          105 inserting    
##  5          105 serving      
##  6          105 representing 
##  7          105 forming      
##  8          105 concluding   
##  9          105 handwriting  
## 10          105 beginning    
## # … with 2,628 more rows
```

She uses 2,638 words that end with "ing". I'm curious, what are their frequencies? I only need to add the `count()` at the end.


```r
book %>% 
  filter(str_ends(word, "ing")) %>% 
  count(word, sort = T)
```

```
## # A tibble: 549 × 2
##    word           n
##    <chr>      <int>
##  1 being        220
##  2 nothing      139
##  3 having        92
##  4 going         65
##  5 something     64
##  6 morning       59
##  7 evening       54
##  8 anything      49
##  9 looking       45
## 10 everything    43
## # … with 539 more rows
```

"Being" and "nothing" are the most often used (no pun intended). What about words that start with "h"? I can use `str_starts()` from `stringr` package for this.


```r
book %>% 
  filter(str_starts(word, "h")) %>% 
  count(word, sort = T)
```

```
## # A tibble: 216 × 2
##    word        n
##    <chr>   <int>
##  1 her      1203
##  2 had      1187
##  3 he        961
##  4 his       659
##  5 have      589
##  6 him       467
##  7 herself   159
##  8 how       125
##  9 has        99
## 10 himself    95
## # … with 206 more rows
```

They're mostly pronouns. How many times does "gh" appear in her texts and in which words? (If I recall correctly, "gh" is probably one of the most common letter-pair in English.)


```r
book %>% 
  filter(str_detect(word, fixed("gh"))) %>% 
  count(word, sort = T)
```

```
## # A tibble: 97 × 2
##    word        n
##    <chr>   <int>
##  1 might     166
##  2 though    117
##  3 thought    90
##  4 enough     71
##  5 ought      52
##  6 right      43
##  7 through    34
##  8 brought    33
##  9 high       27
## 10 night      24
## # … with 87 more rows
```
…
<img src="{{< blogdown/postref >}}index_files/figure-html/unnamed-chunk-13-1.png" width="672" />

### Finding Hapaxes

Hapaxes are words that occur only once in the text. Nothing complicated; I will first count the occurrences and then filter when the `count` is 1.


```r
book %>% 
  count(word, sort = T) %>% 
  filter(n == 1)
```

```
## # A tibble: 2,566 × 2
##    word      n
##    <chr> <int>
##  1 10        1
##  2 11        1
##  3 12        1
##  4 13        1
##  5 14        1
##  6 17        1
##  7 1760      1
##  8 1784      1
##  9 1785      1
## 10 1787      1
## # … with 2,556 more rows
```

These are all numbers. What about words?


```r
book %>% 
  count(word, sort = T) %>% 
  filter(n == 1) %>% 
  filter(!str_detect(word, "[0-9]"))
```

```
## # A tibble: 2,534 × 2
##    word             n
##    <chr>        <int>
##  1 a'n't            1
##  2 abbreviation     1
##  3 abdication       1
##  4 abide            1
##  5 abode            1
##  6 abominable       1
##  7 abominate        1
##  8 abominates       1
##  9 absenting        1
## 10 abstraction      1
## # … with 2,524 more rows
```
…
