…
```r
phds
```

```
## # A tibble: 3,370 × 5
##    broad_field   major_field                                 field   year n_phds
##    <chr>         <chr>                                       <chr>  <dbl>  <dbl>
##  1 Life sciences Agricultural sciences and natural resources Agric…  2008    111
##  2 Life sciences Agricultural sciences and natural resources Agric…  2008     28
##  3 Life sciences Agricultural sciences and natural resources Agric…  2008      3
##  4 Life sciences Agricultural sciences and natural resources Agron…  2008     68
##  5 Life sciences Agricultural sciences and natural resources Anima…  2008     41
##  6 Life sciences Agricultural sciences and natural resources Anima…  2008     18
##  7 Life sciences Agricultural sciences and natural resources Anima…  2008     77
##  8 Life sciences Agricultural sciences and natural resources Envir…  2008    182
##  9 Life sciences Agricultural sciences and natural resources Fishi…  2008     52
## 10 Life sciences Agricultural sciences and natural resources Food …  2008     96
## # … with 3,360 more rows
```
…
Oh, so no information. I guess I'll have to group by field.


```r
phds %>% 
  filter(broad_field == "Engineering") %>% 
  group_by(field) %>% 
  summarise(n_phds = sum(n_phds, na.rm = T)) %>% 
  arrange(desc(n_phds))
```

```
## # A tibble: 23 × 2
##    field                                            n_phds
##    <chr>                                             <dbl>
##  1 Computer engineering                               4030
##  2 Environmental, environmental health engineeringl   2001
##  3 Engineering, other                                 1488
##  4 Nuclear engineering                                1166
##  5 Operations research (engineering)                   985
##  6 Systems engineering                                 924
##  7 Petroleum engineering                               760
##  8 Structural engineering                              743
##  9 Agricultural engineering                            674
## 10 Polymer, plastics engineering                       658
## # … with 13 more rows
```
…
